-a="X:\LuxGames\DelayTheInevitable\LD50-Unity\Library\PlayerScriptAssemblies\Assembly-CSharp-firstpass.dll"
-a="X:\LuxGames\DelayTheInevitable\LD50-Unity\Library\PlayerScriptAssemblies\Assembly-CSharp.dll"
-a="X:\LuxGames\DelayTheInevitable\LD50-Unity\Library\PlayerScriptAssemblies\Cinemachine.dll"
-a="X:\LuxGames\DelayTheInevitable\LD50-Unity\Library\PlayerScriptAssemblies\Unity.Postprocessing.Runtime.dll"
-a="X:\LuxGames\DelayTheInevitable\LD50-Unity\Library\PlayerScriptAssemblies\UnityEngine.TestRunner.dll"
-a="X:\LuxGames\DelayTheInevitable\LD50-Unity\Library\PlayerScriptAssemblies\Unity.Timeline.dll"
-a="X:\LuxGames\DelayTheInevitable\LD50-Unity\Library\PlayerScriptAssemblies\Unity.TextMeshPro.dll"
-a="X:\LuxGames\DelayTheInevitable\LD50-Unity\Library\PlayerScriptAssemblies\UnityEngine.UI.dll"
-a="X:\LuxGames\DelayTheInevitable\LD50-Unity\Library\PackageCache\com.unity.nuget.newtonsoft-json@2.0.0\Runtime\AOT\Newtonsoft.Json.dll"
-a="X:\LuxGames\DelayTheInevitable\LD50-Unity\Library\PackageCache\com.unity.nuget.newtonsoft-json@2.0.0\Runtime\Portable\Newtonsoft.Json.dll"
-a="X:\LuxGames\DelayTheInevitable\LD50-Unity\Library\PackageCache\com.unity.nuget.newtonsoft-json@2.0.0\Runtime\Newtonsoft.Json.dll"
-a="X:\LuxGames\DelayTheInevitable\LD50-Unity\Library\PackageCache\com.unity.ext.nunit@1.0.6\net35\unity-custom\nunit.framework.dll"
-s="C:\Program Files\Unity\Hub\Editor\2020.3.12f1\Editor\Data\Managed\UnityEngine"
-s="X:\LuxGames\DelayTheInevitable\LD50-Unity\Library\PlayerScriptAssemblies"
-s="X:\LuxGames\DelayTheInevitable\LD50-Unity\Library\PackageCache\com.unity.nuget.newtonsoft-json@2.0.0\Runtime\AOT"
-s="X:\LuxGames\DelayTheInevitable\LD50-Unity\Library\PackageCache\com.unity.nuget.newtonsoft-json@2.0.0\Runtime\Portable"
-s="X:\LuxGames\DelayTheInevitable\LD50-Unity\Library\PackageCache\com.unity.nuget.newtonsoft-json@2.0.0\Runtime"
-s="X:\LuxGames\DelayTheInevitable\LD50-Unity\Library\PackageCache\com.unity.ext.nunit@1.0.6\net35\unity-custom"
-s="C:\Program Files\Unity\Hub\Editor\2020.3.12f1\Editor\Data\Managed\UnityEngine"
-s="C:\Program Files\Unity\Hub\Editor\2020.3.12f1\Editor\Data\NetStandard\ref\2.0.0"
-s="C:\Program Files\Unity\Hub\Editor\2020.3.12f1\Editor\Data\NetStandard\compat\2.0.0\shims\netstandard"
-s="C:\Program Files\Unity\Hub\Editor\2020.3.12f1\Editor\Data\NetStandard\Extensions\2.0.0"
-s="C:\Program Files\Unity\Hub\Editor\2020.3.12f1\Editor\Data\NetStandard\compat\2.0.0\shims\netfx"
-o="X:\LuxGames\DelayTheInevitable\LD50-Unity\Library\BuildPlayerData\Player"
-rn="RuntimeInitializeOnLoads.json"
-tn="TypeDb-All.json"
