%YAML 1.1
%TAG !u! tag:unity3d.com,2011:
--- !u!1045 &1
EditorBuildSettings:
  m_ObjectHideFlags: 0
  serializedVersion: 2
  m_Scenes:
  - enabled: 1
    path: Assets/6-Scenes/Title.unity
    guid: 86d4862ef6535994dba7cbdca6724e24
  - enabled: 1
    path: Assets/6-Scenes/Main.unity
    guid: 9fc0d4010bbf28b4594072e72b8655ab
  m_configObjects: {}
